----------------------------------------------------------------------------------------------------

/

.bowerrc ( Listo NV )
.gitignore ( Listo NV )
Bitacora EPA COLOMBIA SAS.txt NV ->
Gulpfile.js NV ->
README ( Listo NV )

----------------------------------------------------------------------------------------------------

/wp-content/themes/EPA-COLOMBIA/

footer.php ( Listo NV )
functions.php NV ->
header.php ( Listo NV )
index.html ( Listo NV )
index.php ( Listo NV )
part-banner-a-que-nos-dedicamos.php ( Listo NV )
part-banner-compuestos-organicos-totales.php
part-banner-dioxinas-y-furanos.php ( Listo NV )
part-banner-fluoruros-totales.php ( Listo NV )
part-banner-haluros-de-hidrogeno-y-halogenos.php ( Listo NV )
part-banner-home.php ( Listo NV )
part-banner-material-particulado-o-particulas-suspendidas-totales.php ( Listo NV )
part-banner-metales-pesados.php ( Listo NV )
part-banner-modelos-de-dispersion-atmosferica.php ( Listo NV )
part-banner-monitoreo-de-calidad-del-aire.php ( Listo NV )
part-banner-muestreos-directos-en-chimenea.php ( Listo NV )
part-banner-oxidos-de-azufre.php ( Listo NV )
part-banner-oxidos-de-nitrogeno.php ( Listo NV )
part-bottom.php ( Listo NV )
part-content.php ( Listo NV )
part-copyright.php ( Listo NV )
part-header.php ( Listo NV )
part-home-1.php ( Listo NV )
part-home-2.php ( Listo NV )
part-home-3.php ( Listo NV )
part-menu.php ( Listo NV )
style.css ( Listo NV )

----------------------------------------------------------------------------------------------------

/wp-content/themes/EPA-COLOMBIA/assets/

index.html ( Listo NV )

----------------------------------------------------------------------------------------------------

/wp-content/themes/EPA-COLOMBIA/assets/css/

app.scss NV ->
index.html ( Listo NV )

----------------------------------------------------------------------------------------------------

/wp-content/themes/EPA-COLOMBIA/assets/images/

----------------------------------------------------------------------------------------------------

/wp-content/themes/EPA-COLOMBIA/assets/js/

app.js ( Listo NV )
index.html ( Listo NV )

----------------------------------------------------------------------------------------------------